Getting started with unitar • unitar
…
## 2 filter_big_reference_data
## 3 big_data_set             
## 4 filtered_data            
## 
## [[2]]
## # A tibble: 4 x 1
##   name      
##   <chr>     
## 1 ref_data_2
## 2 filter_2  
## 3 ref2      
## 4 filt_ref2 
## 
## [[3]]
## # A tibble: 30 x 1
##    name          
##    <chr>         
##  1 unitar_exec   
##  2 peptar_folders
##  3 my_meta       
##  4 peptar_exec   
##  5 unitar_make   
##  6 unitar_meta   
##  7 peptar_make   
##  8 unitar_load   
##  9 unitar_path   
## 10 peptar_meta   
## # … with 20 more rows
…
